Linux 2.6.32-279.14.1.el6.x86_64 (compute-641-3.local) 	04/18/2020 	_x86_64_	(32 CPU)

avg-cpu:  %user   %nice %system %iowait  %steal   %idle
          46.60    0.00    2.31    0.08    0.00   51.01

Device:            tps   Blk_read/s   Blk_wrtn/s   Blk_read   Blk_wrtn
sda               3.53         2.99       151.67   29152578 1478924816

avg-cpu:  %user   %nice %system %iowait  %steal   %idle
           3.13    0.00    0.08    0.12    0.00   96.67

Device:            tps   Blk_read/s   Blk_wrtn/s   Blk_read   Blk_wrtn
sda               3.40         0.00        27.20          0        272

avg-cpu:  %user   %nice %system %iowait  %steal   %idle
           3.13    0.00    0.07    0.00    0.00   96.79

Device:            tps   Blk_read/s   Blk_wrtn/s   Blk_read   Blk_wrtn
sda               1.30         0.00        10.40          0        104

avg-cpu:  %user   %nice %system %iowait  %steal   %idle
           3.14    0.00    0.07    0.00    0.00   96.79

Device:            tps   Blk_read/s   Blk_wrtn/s   Blk_read   Blk_wrtn
sda               0.70         0.00         5.60          0         56

avg-cpu:  %user   %nice %system %iowait  %steal   %idle
           3.13    0.00    0.07    0.00    0.00   96.80

Device:            tps   Blk_read/s   Blk_wrtn/s   Blk_read   Blk_wrtn
sda               2.30         0.00        18.40          0        184

