procs -----------memory---------- ---swap-- -----io---- --system-- -----cpu-----
 r  b   swpd   free   buff  cache   si   so    bi    bo   in   cs us sy id wa st
 2  0   5616 64634920 236212 303980    0    0     0     2    0    0 47  2 51  0  0	
30  0   5616 63932040 236212 381476    0    0     0     0 34892 39694 55  8 37  0  0	
27  0   5616 63931692 236212 381980    0    0     0   212 25281 6913 75  0 24  0  0	
28  0   5616 63929072 236212 381980    0    0     0    12 26788 19841 78  0 21  0  0	
25  0   5616 63930760 236212 382344    0    0     0     0 26018 6987 78  0 22  0  0	
25  0   5616 63930516 236212 382704    0    0     0     0 26299 19497 78  0 21  0  0	
25  0   5616 63931276 236212 382704    0    0     0     0 26073 7050 78  0 22  0  0	
25  0   5616 63931904 236212 383060    0    0     0    24 25677 19791 75  0 25  0  0	
25  0   5616 63933020 236212 383060    0    0     0     0 26014 6980 78  0 22  0  0	
25  0   5616 63932892 236212 383420    0    0     0    12 26278 19470 78  0 21  0  0	
25  0   5616 63934552 236212 383420    0    0     0     0 26030 6987 78  0 22  0  0	
25  0   5616 63934588 236212 383780    0    0     0     0 26283 19468 78  0 21  0  0	
25  0   5616 63935308 236212 383780    0    0     0    24 25720 6953 77  0 22  0  0	
26  0   5616 63936044 236212 383780    0    0     0    40 27273 20415 78  0 21  0  0	
25  0   5616 63936452 236212 384140    0    0     0     0 26711 7186 78  0 22  0  0	
26  0   5616 63936692 236212 384144    0    0     0     0 27344 8188 78  0 22  0  0	
25  1   5616 63937612 236212 384504    0    0     0    28 27053 19699 78  0 21  0  0	
25  0   5616 63938004 236212 384504    0    0     0    28 27161 7751 78  0 22  0  0	
25  0   5616 63938260 236212 384864    0    0     0   236 26368 19538 78  0 21  0  0	
25  0   5616 63938520 236212 384864    0    0     0     0 27586 8405 78  0 22  0  0	
25  0   5616 63938068 236212 385224    0    0     0     0 27156 20739 78  0 21  0  0	
procs -----------memory---------- ---swap-- -----io---- --system-- -----cpu-----
 r  b   swpd   free   buff  cache   si   so    bi    bo   in   cs us sy id wa st
25  0   5616 63938144 236212 385224    0    0     0     0 26024 7006 78  0 22  0  0	
25  2   5616 63938028 236212 385584    0    0     0    44 25804 19438 77  0 22  1  0	
25  0   5616 63938124 236212 385584    0    0     0     4 26001 6981 78  0 22  0  0	
25  0   5616 63938124 236212 385944    0    0     0     0 26286 19502 78  0 21  0  0	
25  0   5616 63938124 236212 385944    0    0     0     0 25992 6959 78  0 22  0  0	
25  0   5616 63938488 236212 385944    0    0     0     0 26363 19628 78  0 21  0  0	
 1  1   5616 64625796 236212 303980    0    0     0    72 21405 29303 19  1 80  0  0	
 0  0   5616 64631756 236212 303988    0    0     0     4 2196 2725  0  0 100  0  0	
 0  0   5616 64631764 236212 303996    0    0     0    24 2012 2170  0  0 100  0  0	
 2  0   5616 64632216 236212 303996    0    0     0     0 2089 2709  0  0 100  0  0	
 0  0   5616 64632888 236212 304008    0    0     0     0 2078 2271  0  0 100  0  0	
