
================= MPI IMG3 ======================================

 CPU     ID                    FUNCTION:NAME
   2      2                             :END
       ===== TOT_ins =====
Pid: 13124   Ins: 26130600000

Pid: 13125      Ins: 26333975000

Pid: 13126      Ins: 30032455000

Pid: 13123      Ins: 38065910000


   1      2                             :END
       ===== TOT_ins =====
Pid: 13124   Ins: 26173055000

Pid: 13125      Ins: 26347355000

Pid: 13126      Ins: 30032095000

Pid: 13123      Ins: 38067535000


 CPU     ID                    FUNCTION:NAME
   0      2                             :END
       ===== TOT_ins =====
Pid: 13124   Ins: 26173055000

Pid: 13125      Ins: 26385600000

Pid: 13126      Ins: 30032455000

Pid: 13123      Ins: 38118620000


 CPU     ID                    FUNCTION:NAME
   3      2                             :END
       ===== TOT_ins =====
Pid: 13124   Ins: 26173055000

Pid: 13125      Ins: 26385600000

Pid: 13126      Ins: 30032455000

Pid: 13123      Ins: 38074910000


 CPU     ID                    FUNCTION:NAME
   2      2                             :END
       ===== TOT_cyc =====
Pid: 13224   Cyc: 28461810000

Pid: 13225      Cyc: 29296305000

Pid: 13223      Cyc: 30076735000

Pid: 13222      Cyc: 39480800000


 CPU     ID                    FUNCTION:NAME
   3      2                             :END
       ===== TOT_cyc =====
Pid: 13224   Cyc: 28278800000

Pid: 13225      Cyc: 29297940000

Pid: 13223      Cyc: 29882595000

Pid: 13222      Cyc: 39313745000


 CPU     ID                    FUNCTION:NAME
   1      2                             :END
       ===== TOT_cyc =====
Pid: 13224   Cyc: 28466560000

Pid: 13225      Cyc: 29297940000

Pid: 13223      Cyc: 30070780000

Pid: 13222      Cyc: 39485590000


 CPU     ID                    FUNCTION:NAME
   0      2                             :END
       ===== TOT_cyc =====
Pid: 13224   Cyc: 28466270000

Pid: 13225      Cyc: 29297940000

Pid: 13223      Cyc: 30067985000

Pid: 13222      Cyc: 39485590000


 CPU     ID                    FUNCTION:NAME
   1      2                             :END
       ===== L1_DCM =====
Pid: 13350    L1_DCM: 8605000
Pid: 13348       L1_DCM: 11345000
Pid: 13347      L1_DCM: 13570000
Pid: 13349      L1_DCM: 13760000

 CPU     ID                    FUNCTION:NAME
   0      2                             :END
       ===== L1_DCM =====
Pid: 13350    L1_DCM: 8635000
Pid: 13348       L1_DCM: 11345000
Pid: 13347      L1_DCM: 13650000
Pid: 13349      L1_DCM: 13785000

 CPU     ID                    FUNCTION:NAME
   3      2                             :END
       ===== L1_DCM =====
Pid: 13350    L1_DCM: 8630000
Pid: 13348       L1_DCM: 11275000
Pid: 13347      L1_DCM: 13550000
Pid: 13349      L1_DCM: 13785000

 CPU     ID                    FUNCTION:NAME
   2      2                             :END
       ===== L1_DCM =====
Pid: 13350    L1_DCM: 8635000
Pid: 13348       L1_DCM: 11295000
Pid: 13347      L1_DCM: 13550000
Pid: 13349      L1_DCM: 13785000

 CPU     ID                    FUNCTION:NAME
   2      2                             :END
       ===== L2_DCM =====
Pid: 13369    L2_DCM: 2710000
Pid: 13372       L2_DCM: 3175000
Pid: 13373       L2_DCM: 3375000
Pid: 13368       L2_DCM: 5530000

 CPU     ID                    FUNCTION:NAME
   1      2                             :END
       ===== L2_DCM =====
Pid: 13369    L2_DCM: 2825000
Pid: 13372       L2_DCM: 3175000
Pid: 13373       L2_DCM: 3435000
Pid: 13368       L2_DCM: 5690000

 CPU     ID                    FUNCTION:NAME
   3      2                             :END
       ===== L2_DCM =====
Pid: 13369    L2_DCM: 2780000
Pid: 13372       L2_DCM: 3175000
Pid: 13373       L2_DCM: 3470000
Pid: 13368       L2_DCM: 5700000

 CPU     ID                    FUNCTION:NAME
   0      2                             :END
       ===== L2_DCM =====
Pid: 13369    L2_DCM: 2790000
Pid: 13372       L2_DCM: 3175000
Pid: 13373       L2_DCM: 3470000
Pid: 13368       L2_DCM: 5880000

 CPU     ID                    FUNCTION:NAME
   0  27124                    openat:return
       ===== Openat =====
      Executavel: disTranShortOpti
    PID: 13383 UID: 1025 GID: 5000
 Path: ./Images/img3.pgm
 Flags: O_RDONLY
 Error: No
 CPU     ID                    FUNCTION:NAME
   0  27124                    openat:return
       ===== Openat =====
      Executavel: disTranShortOpti
    PID: 13383 UID: 1025 GID: 5000
 Path: ./Images/img3.pgm
 Flags: O_RDONLY
 Error: No
 CPU     ID                    FUNCTION:NAME
   0  27124                    openat:return
       ===== Openat =====
      Executavel: disTranShortOpti
    PID: 13383 UID: 1025 GID: 5000
 Path: ./Images/img3.pgm
 Flags: O_RDONLY
 Error: No
 CPU     ID                    FUNCTION:NAME
   0  27124                    openat:return
       ===== Openat =====
      Executavel: disTranShortOpti
    PID: 13383 UID: 1025 GID: 5000
 Path: ./Images/img3.pgm
 Flags: O_RDONLY
 Error: No




 CPU     ID                    FUNCTION:NAME
   2      2                             :END
        2
           value  ------------- Distribution ------------- count
            4096 |                                         0
            8192 |@@@@@                                    588
           16384 |@@@@@@@@@@@                              1305
           32768 |@@@@@@@@@@                               1162
           65536 |@@@@@@@@@@@@                             1401
          131072 |                                         40
          262144 |                                         54
          524288 |                                         28
         1048576 |                                         11
         2097152 |                                         4
         4194304 |                                         3
         8388608 |                                         1
        16777216 |                                         5
        33554432 |                                         5
        67108864 |                                         1
       134217728 |                                         5
       268435456 |                                         2
       536870912 |                                         6
      1073741824 |                                         0

        1
           value  ------------- Distribution ------------- count
            4096 |                                         0
            8192 |@@@@@                                    546
           16384 |@@@@@@@@@@@@@                            1373
           32768 |@@@@@@@@@@                               1099
           65536 |@@@@@@@@@@@                              1221
          131072 |                                         52
          262144 |                                         46
          524288 |                                         24
         1048576 |                                         9
         2097152 |                                         5
         4194304 |                                         3
         8388608 |                                         1
        16777216 |                                         0
        33554432 |                                         1
        67108864 |                                         1
       134217728 |                                         1
       268435456 |                                         1
       536870912 |                                         8
      1073741824 |                                         0

        3
           value  ------------- Distribution ------------- count
            4096 |                                         0
            8192 |@@@                                      480
           16384 |@@@@@@@@@@@@@@                           2165
           32768 |@@@@@@@@@@@                              1760
           65536 |@@@@@@@@@@                               1565
          131072 |                                         47
          262144 |                                         46
          524288 |                                         27
         1048576 |                                         6
         2097152 |                                         5
         4194304 |                                         3
         8388608 |                                         2
        16777216 |                                         5
        33554432 |                                         2
        67108864 |                                         4
       134217728 |                                         2
       268435456 |                                         5
       536870912 |                                         7
      1073741824 |                                         0

        0
           value  ------------- Distribution ------------- count
            4096 |                                         0
            8192 |@@@@@                                    450
           16384 |@@@@@@@@@@@@@@@@@@@@                     1715
           32768 |@@@@@@@@@@@                              979
           65536 |@@                                       179
          131072 |                                         35
          262144 |                                         39
          524288 |                                         25
         1048576 |                                         15
         2097152 |                                         6
         4194304 |                                         4
         8388608 |                                         11
        16777216 |                                         0
        33554432 |                                         0
        67108864 |                                         3
       134217728 |                                         5
       268435456 |                                         4
       536870912 |                                         10
      1073741824 |                                         0

CPU microseconds
--- ------------
  2 7344652793
  1 7888467754
  3 8232369325
  0 11238317943


 CPU     ID                    FUNCTION:NAME
   1      2                             :END
        2
           value  ------------- Distribution ------------- count
            4096 |                                         0
            8192 |@@@@@@@                                  841
           16384 |@@@@@@@@@@@@                             1433
           32768 |@@@@@@@@@@                               1189
           65536 |@@@@@@@@@                                1007
          131072 |                                         34
          262144 |                                         48
          524288 |                                         26
         1048576 |                                         11
         2097152 |                                         4
         4194304 |                                         3
         8388608 |                                         1
        16777216 |                                         5
        33554432 |                                         5
        67108864 |                                         1
       134217728 |                                         5
       268435456 |                                         2
       536870912 |                                         6
      1073741824 |                                         0

        1
           value  ------------- Distribution ------------- count
            4096 |                                         0
            8192 |@@@@@@@                                  754
           16384 |@@@@@@@@@@@@@@@                          1678
           32768 |@@@@@@@@@                                1032
           65536 |@@@@@@@@                                 898
          131072 |                                         41
          262144 |                                         48
          524288 |                                         34
         1048576 |                                         9
         2097152 |                                         6
         4194304 |                                         4
         8388608 |                                         1
        16777216 |                                         0
        33554432 |                                         1
        67108864 |                                         1
       134217728 |                                         1
       268435456 |                                         1
       536870912 |                                         8
      1073741824 |                                         0

        3
           value  ------------- Distribution ------------- count
            4096 |                                         0
            8192 |@@@@@@@                                  1050
           16384 |@@@@@@@@@@@@@                            2094
           32768 |@@@@@@@@@@@                              1763
           65536 |@@@@@@@                                  1166
          131072 |                                         41
          262144 |                                         46
          524288 |                                         33
         1048576 |                                         9
         2097152 |                                         6
         4194304 |                                         4
         8388608 |                                         2
        16777216 |                                         5
        33554432 |                                         2
        67108864 |                                         4
       134217728 |                                         2
       268435456 |                                         5
       536870912 |                                         7
      1073741824 |                                         0

        0
           value  ------------- Distribution ------------- count
            4096 |                                         0
            8192 |@@@@@@@@@@@@                             1074
           16384 |@@@@@@@@@@@@@@@                          1356
           32768 |@@@@@@@@@                                828
           65536 |@@                                       154
          131072 |                                         37
          262144 |@                                        46
          524288 |                                         30
         1048576 |                                         19
         2097152 |                                         7
         4194304 |                                         5
         8388608 |                                         11
        16777216 |                                         0
        33554432 |                                         0
        67108864 |                                         3
       134217728 |                                         5
       268435456 |                                         4
       536870912 |                                         10
      1073741824 |                                         0

CPU microseconds
--- ------------
  2 7310276763
  1 7883785029
  3 8214162823
  0 11244374544


 CPU     ID                    FUNCTION:NAME
   3      2                             :END
        2
           value  ------------- Distribution ------------- count
            4096 |                                         0
            8192 |@@@@@@                                   729
           16384 |@@@@@@@@@@@@                             1376
           32768 |@@@@@@@@@@                               1207
           65536 |@@@@@@@@@@                               1150
          131072 |                                         38
          262144 |                                         51
          524288 |                                         27
         1048576 |                                         11
         2097152 |                                         4
         4194304 |                                         3
         8388608 |                                         1
        16777216 |                                         5
        33554432 |                                         5
        67108864 |                                         1
       134217728 |                                         5
       268435456 |                                         2
       536870912 |                                         6
      1073741824 |                                         0

        1
           value  ------------- Distribution ------------- count
            4096 |                                         0
            8192 |@@@@@@                                   697
           16384 |@@@@@@@@@@@@@@                           1597
           32768 |@@@@@@@@@                                1029
           65536 |@@@@@@@@@                                1027
          131072 |                                         45
          262144 |                                         52
          524288 |                                         30
         1048576 |                                         12
         2097152 |                                         6
         4194304 |                                         3
         8388608 |                                         1
        16777216 |                                         0
        33554432 |                                         1
        67108864 |                                         1
       134217728 |                                         1
       268435456 |                                         1
       536870912 |                                         8
      1073741824 |                                         0

        3
           value  ------------- Distribution ------------- count
            4096 |                                         0
            8192 |@@@@                                     681
           16384 |@@@@@@@@@@@@@@                           2242
           32768 |@@@@@@@@@@@@                             1858
           65536 |@@@@@@@@                                 1284
          131072 |                                         44
          262144 |                                         51
          524288 |                                         33
         1048576 |                                         9
         2097152 |                                         6
         4194304 |                                         4
         8388608 |                                         2
        16777216 |                                         5
        33554432 |                                         2
        67108864 |                                         4
       134217728 |                                         2
       268435456 |                                         5
       536870912 |                                         7
      1073741824 |                                         0

        0
           value  ------------- Distribution ------------- count
            4096 |                                         0
            8192 |@@@@@@@                                  665
           16384 |@@@@@@@@@@@@@@@@@@                       1634
           32768 |@@@@@@@@@@@                              943
           65536 |@@                                       168
          131072 |                                         35
          262144 |@                                        48
          524288 |                                         30
         1048576 |                                         18
         2097152 |                                         7
         4194304 |                                         5
         8388608 |                                         11
        16777216 |                                         0
        33554432 |                                         0
        67108864 |                                         3
       134217728 |                                         5
       268435456 |                                         4
       536870912 |                                         10
      1073741824 |                                         0

CPU microseconds
--- ------------
  2 7327442409
  1 7890494866
  3 8235527525
  0 11252578187


 CPU     ID                    FUNCTION:NAME
   0      2                             :END
        2
           value  ------------- Distribution ------------- count
            2048 |                                         0
            4096 |                                         51
            8192 |@@@@@@@@                                 930
           16384 |@@@@@@@@@@@@                             1390
           32768 |@@@@@@@@@@@@                             1355
           65536 |@@@@@@                                   750
          131072 |                                         30
          262144 |                                         47
          524288 |                                         25
         1048576 |                                         11
         2097152 |                                         4
         4194304 |                                         3
         8388608 |                                         1
        16777216 |                                         5
        33554432 |                                         5
        67108864 |                                         1
       134217728 |                                         5
       268435456 |                                         2
       536870912 |                                         6
      1073741824 |                                         0

        1
           value  ------------- Distribution ------------- count
            2048 |                                         0
            4096 |@                                        94
            8192 |@@@@@@                                   732
           16384 |@@@@@@@@@@@@@@@                          1736
           32768 |@@@@@@@@@@                               1113
           65536 |@@@@@@                                   697
          131072 |                                         33
          262144 |                                         47
          524288 |                                         34
         1048576 |                                         8
         2097152 |                                         6
         4194304 |                                         4
         8388608 |                                         1
        16777216 |                                         0
        33554432 |                                         1
        67108864 |                                         1
       134217728 |                                         1
       268435456 |                                         1
       536870912 |                                         8
      1073741824 |                                         0

        3
           value  ------------- Distribution ------------- count
            2048 |                                         0
            4096 |                                         46
            8192 |@@@@@@@@                                 1319
           16384 |@@@@@@@@@@@@@                            1966
           32768 |@@@@@@@@@@@@                             1847
           65536 |@@@@@@                                   901
          131072 |                                         38
          262144 |                                         43
          524288 |                                         33
         1048576 |                                         9
         2097152 |                                         6
         4194304 |                                         5
         8388608 |                                         1
        16777216 |                                         5
        33554432 |                                         2
        67108864 |                                         4
       134217728 |                                         2
       268435456 |                                         5
       536870912 |                                         7
      1073741824 |                                         0

        0
           value  ------------- Distribution ------------- count
            2048 |                                         0
            4096 |                                         1
            8192 |@@@@@@@@@@@@@@@                          1359
           16384 |@@@@@@@@@@@@@                            1181
           32768 |@@@@@@@@                                 738
           65536 |@@                                       138
          131072 |                                         33
          262144 |@                                        45
          524288 |                                         39
         1048576 |                                         11
         2097152 |                                         8
         4194304 |                                         5
         8388608 |                                         11
        16777216 |                                         0
        33554432 |                                         0
        67108864 |                                         3
       134217728 |                                         5
       268435456 |                                         4
       536870912 |                                         10
      1073741824 |                                         0

CPU microseconds
--- ------------
  2 7292713729
  1 7866444742
  3 8191928192
  0 11238705120

