 CPU     ID                    FUNCTION:NAME
   1      2                             :END mutex block:

  mutex wait                                        
           value  ------------- Distribution ------------- count    
             128 |                                         0        
             256 |@                                        1        
             512 |@                                        1        
            1024 |@@                                       3        
            2048 |@@@@@@@@@                                12       
            4096 |@@@@@@@@@@@@@@                           20       
            8192 |@@@@                                     6        
           16384 |@                                        2        
           32768 |@                                        1        
           65536 |                                         0        
          131072 |                                         0        
          262144 |@@                                       3        
          524288 |@@@@@                                    7        
         1048576 |                                         0        

mutex spin:

  mutex wait                                        
           value  ------------- Distribution ------------- count    
          -65536 |                                         0        
          -32768 |@                                        1        
          -16384 |                                         0        
           -8192 |                                         0        
           -4096 |@                                        1        
           -2048 |@                                        1        
           -1024 |                                         0        
            -512 |                                         0        
            -256 |@                                        1        
            -128 |                                         0        
             -64 |                                         0        
             -32 |                                         0        
             -16 |                                         0        
              -8 |                                         0        
              -4 |                                         0        
              -2 |                                         0        
              -1 |                                         0        
               0 |                                         0        
               1 |                                         0        
               2 |                                         0        
               4 |                                         0        
               8 |                                         0        
              16 |                                         0        
              32 |                                         0        
              64 |                                         0        
             128 |                                         0        
             256 |                                         0        
             512 |@                                        1        
            1024 |                                         0        
            2048 |@@@@                                     5        
            4096 |@@@@@                                    7        
            8192 |@@@                                      4        
           16384 |@@@@@@@@@@@@@                            18       
           32768 |@@@@@@@@@@@                              16       
           65536 |@                                        1        
          131072 |                                         0        

mutex time:

  mutex time                                        
           value  ------------- Distribution ------------- count    
            2048 |                                         0        
            4096 |@@@@@@@@@@@@@@@@@@                       26       
            8192 |@@@@@@@@@@@@@@@@                         23       
           16384 |                                         0        
           32768 |                                         0        
           65536 |@                                        1        
          131072 |@@@                                      5        
          262144 |@@                                       3        
          524288 |                                         0        

mutex errors:


