procs -----------memory---------- ---swap-- -----io---- --system-- -----cpu-----
 r  b   swpd   free   buff  cache   si   so    bi    bo   in   cs us sy id wa st
 4  0   5616 64648268 236036 275316    0    0     0     2    0    0 47  2 51  0  0	
33  0   5616 64485392 236036 275404    0    0     0     0 31149 11027 90  2  8  0  0	
33  0   5616 64485764 236036 275420    0    0     0     0 30855 10004 93  0  7  0  0	
32  0   5616 64490240 236036 275428    0    0     0     0 30993 10752 92  0  7  0  0	
32  0   5616 64490612 236036 275428    0    0     0    44 30921 10010 93  0  7  0  0	
23  0   5616 64490740 236036 275440    0    0     0    12 30762 10474 92  0  7  0  0	
32  0   5616 64490880 236036 275440    0    0     0     0 30741 10032 93  0  7  0  0	
33  0   5616 64491656 236036 275448    0    0     0     0 30705 10639 92  0  7  0  0	
32  0   5616 64491992 236036 275448    0    0     0     0 30842 9997 93  0  7  0  0	
32  0   5616 64491976 236036 275456    0    0     0     0 30540 10551 92  0  8  0  0	
34  0   5616 64492224 236036 275456    0    0     0     0 30662 10024 93  0  7  0  0	
32  0   5616 64492248 236036 275464    0    0     0     0 30758 10601 93  0  7  0  0	
32  0   5616 64492504 236036 275464    0    0     0     0 30747 9991 93  0  7  0  0	
32  0   5616 64492656 236036 275476    0    0     0     0 30740 10463 93  0  7  0  0	
32  0   5616 64492776 236036 275476    0    0     0     0 30696 9995 93  0  7  0  0	
32  0   5616 64493140 236036 275476    0    0     0     0 30594 10548 92  0  8  0  0	
32  0   5616 64493148 236036 275488    0    0     0     0 30645 10046 93  0  7  0  0	
32  0   5616 64497384 236036 275488    0    0     0     0 30714 10662 93  0  7  0  0	
32  0   5616 64497508 236036 275496    0    0     0     0 30769 9997 93  0  7  0  0	
32  0   5616 64497876 236036 275496    0    0     0     0 30821 10780 93  0  7  0  0	
